{
    "Mins": "[-217.1229 -629.0247 -307.2123]",
    "Maxs": "[126.2205 596.5901 181.4394]",
    "ShipInfo": {
        "MaxArmor": 4540.5,
        "SigRad": 31.130592878432894,
        "PowerLevel": 0.0,
        "Class": "Frigate",
        "MaxCapacitor": 336772.0,
        "MaxShield": 7647.0,
        "NPCShipTags": {
            "Combat": true
        },
        "FactionWhitelist": {
            "Advanced Development and Research Institutes": true
        },
        "SubClass": "Frigate"
    },
    "Entities": {
        "186": {
            "Mins": "[-60.25 -76.6873 -0.25]",
            "Pos": "[-47.3467 -319.5356 -57.6284]",
            "Class": "sc_turret",
            "Angle": "{-0 -0 0}",
            "Maxs": "[60.25 87.5324 40.8038]",
            "Model": "models/mandrac/hybride/heavy_base.mdl",
            "EntityMods": {
                "nocollide": {
                    "NoCollide": true
                },
                "SC2DupeInfo": {
                    "ProjectileType": "Medium EM Cannon Round",
                    "FireGroup": "Primary",
                    "ProjectileRecipeOwner": "NULL",
                    "LauncherType": "Medium Cannon",
                    "WeaponCount": 1.0,
                    "TurretType": "Medium/Dual Heavy"
                },
                "WireDupeInfo": {
                    "Wires": []
                }
            }
        },
        "956": {
            "Mins": "[-27.5722 -27.5722 -3.9872]",
            "Pos": "[-202.3335 136.853 -126.3218]",
            "Class": "sc_turret",
            "Angle": "{-0.0001 -90.0142 88.9363}",
            "Maxs": "[27.5722 27.5722 3.9872]",
            "Model": "models/mechanics/gears2/bevel_24t1.mdl",
            "EntityMods": {
                "SC2DupeInfo": {
                    "ProjectileType": "Small Trinium Hybrid Charge",
                    "FireGroup": "Primary",
                    "ProjectileRecipeOwner": "NULL",
                    "LauncherType": "Small Railgun",
                    "WeaponCount": 1.0,
                    "TurretType": "Small/Single Projector"
                },
                "WireDupeInfo": {
                    "Wires": []
                }
            }
        },
        "362": {
            "Mins": "[-27.5722 -27.5722 -3.9872]",
            "Pos": "[-202.4092 -169.48 -126.2969]",
            "Class": "sc_turret",
            "Angle": "{-0.0001 -90.0142 88.9363}",
            "Maxs": "[27.5722 27.5722 3.9872]",
            "Model": "models/mechanics/gears2/bevel_24t1.mdl",
            "EntityMods": {
                "SC2DupeInfo": {
                    "ProjectileType": "Small Trinium Hybrid Charge",
                    "FireGroup": "Primary",
                    "ProjectileRecipeOwner": "NULL",
                    "LauncherType": "Small Railgun",
                    "WeaponCount": 1.0,
                    "TurretType": "Small/Single Projector"
                },
                "WireDupeInfo": {
                    "Wires": []
                }
            }
        },
        "903": {
            "Mins": "[-27.5722 -27.5722 -3.9872]",
            "Pos": "[-202.3716 -16.3374 -126.2852]",
            "Class": "sc_turret",
            "Angle": "{-0.0001 -90.0142 88.9363}",
            "Maxs": "[27.5722 27.5722 3.9872]",
            "Model": "models/mechanics/gears2/bevel_24t1.mdl",
            "EntityMods": {
                "SC2DupeInfo": {
                    "ProjectileType": "Small Trinium Hybrid Charge",
                    "FireGroup": "Primary",
                    "ProjectileRecipeOwner": "NULL",
                    "LauncherType": "Small Railgun",
                    "WeaponCount": 1.0,
                    "TurretType": "Small/Single Projector"
                },
                "WireDupeInfo": {
                    "Wires": []
                }
            }
        },
        "889": {
            "Mins": "[-27.5722 -27.5722 -3.9872]",
            "Pos": "[111.0542 -169.4126 -126.2617]",
            "Class": "sc_turret",
            "Angle": "{-0.0001 -89.9855 -88.9364}",
            "Maxs": "[27.5722 27.5722 3.9872]",
            "Model": "models/mechanics/gears2/bevel_24t1.mdl",
            "EntityMods": {
                "SC2DupeInfo": {
                    "ProjectileType": "Small Trinium Hybrid Charge",
                    "FireGroup": "Primary",
                    "ProjectileRecipeOwner": "NULL",
                    "LauncherType": "Small Railgun",
                    "WeaponCount": 1.0,
                    "TurretType": "Small/Single Projector"
                },
                "WireDupeInfo": {
                    "Wires": []
                }
            }
        },
        "961": {
            "Mins": "[-27.5722 -27.5722 -3.9872]",
            "Pos": "[111.0151 -16.2817 -126.2632]",
            "Class": "sc_turret",
            "Angle": "{-0.0001 -89.9855 -88.9364}",
            "Maxs": "[27.5722 27.5722 3.9872]",
            "Model": "models/mechanics/gears2/bevel_24t1.mdl",
            "EntityMods": {
                "SC2DupeInfo": {
                    "ProjectileType": "Small Trinium Hybrid Charge",
                    "FireGroup": "Primary",
                    "ProjectileRecipeOwner": "NULL",
                    "LauncherType": "Small Railgun",
                    "WeaponCount": 1.0,
                    "TurretType": "Small/Single Projector"
                },
                "WireDupeInfo": {
                    "Wires": []
                }
            }
        },
        "895": {
            "Mins": "[-171.6709 -612.8071 -244.3363]",
            "Pos": "[-45.4512 -16.2173 -62.876]",
            "PhysicsObjects": {
                "0": {
                    "Pos": "[-8016.6812 -6491.9868 -7596.2271]",
                    "Frozen": true,
                    "Angle": "{0 180 0}"
                }
            },
            "Class": "prop_dynamic_override",
            "Angle": "{0 179.9999 0}",
            "Maxs": "[171.6709 612.8071 244.3154]",
            "Model": "models/props_wasteland/tugtop002.mdl",
            "EntityMods": {
                "nocollide": {
                    "NoCollide": true
                },
                "submaterial": {
                    "SubMaterialOverride_1": "models/props/cs_assault/metal_stairs1",
                    "SubMaterialOverride_2": "models/props_debris/plasterwall040c"
                }
            }
        },
        "896": {
            "Mins": "[-95.15 -95.15 -47.7]",
            "Pos": "[-47.3467 -301.0713 -105.0786]",
            "PhysicsObjects": {
                "0": {
                    "Pos": "[-8018.5767 -6776.8413 -7638.4297]",
                    "Frozen": true,
                    "Angle": "{-0 -179.9999 0}"
                }
            },
            "Class": "prop_dynamic_override",
            "Angle": "{-0 -179.9999 0}",
            "Maxs": "[95.15 95.15 47.7]",
            "Model": "models/hunter/blocks/cube4x4x2.mdl",
            "EntityMods": {
                "nocollide": {
                    "NoCollide": true
                }
            }
        },
        "898": {
            "Mins": "[-60.25 -76.6873 -0.25]",
            "Pos": "[-40.1792 385.3433 -82.4102]",
            "Class": "sc_turret",
            "Angle": "{0 -179.9999 0}",
            "Maxs": "[60.25 87.5324 40.8038]",
            "Model": "models/mandrac/hybride/heavy_base.mdl",
            "EntityMods": {
                "SC2DupeInfo": {
                    "ProjectileType": "Medium EM Cannon Round",
                    "FireGroup": "Primary",
                    "ProjectileRecipeOwner": "NULL",
                    "LauncherType": "Medium Cannon",
                    "WeaponCount": 1.0,
                    "TurretType": "Medium/Dual Heavy"
                },
                "WireDupeInfo": {
                    "Wires": []
                }
            }
        },
        "969": {
            "Mins": "[-21.8966 -21.8966 -6.1977]",
            "Pos": "[-122.1743 -177.3276 1.7441]",
            "Class": "sc_turret",
            "Angle": "{0 -135.0003 0}",
            "Maxs": "[21.8966 21.8966 32.4936]",
            "Model": "models/slyfo/swordrecondrone.mdl",
            "EntityMods": {
                "SC2DupeInfo": {
                    "ProjectileType": "Small EM Pulse Laser Crystal",
                    "FireGroup": "Primary",
                    "ProjectileRecipeOwner": "NULL",
                    "LauncherType": "Small Pulse Beam",
                    "WeaponCount": 1.0,
                    "TurretType": "Small/Double Battery"
                },
                "WireDupeInfo": {
                    "Wires": {
                        "Target": {
                            "Path": [],
                            "Material": "cable/cable2",
                            "Width": 0.0,
                            "Color": {
                                "r": 0.0,
                                "b": 233.0,
                                "a": 255.0,
                                "g": 255.0
                            },
                            "SrcId": "entity",
                            "SrcPos": "[-24.77 86.94 6.68]",
                            "StartPos": "[11.8 -3.63 -0.09]",
                            "Src": 191.0
                        },
                        "Active": {
                            "Path": [],
                            "Material": "cable/cable2",
                            "Width": 0.0,
                            "Color": {
                                "r": 0.0,
                                "b": 233.0,
                                "a": 255.0,
                                "g": 255.0
                            },
                            "SrcId": "Out",
                            "SrcPos": "[-4.17 5.84 9.58]",
                            "StartPos": "[9.22 17.6 0.13]",
                            "Src": 310.0
                        },
                        "Fire": {
                            "Path": [],
                            "Material": "cable/cable2",
                            "Width": 0.0,
                            "Color": {
                                "r": 0.0,
                                "b": 233.0,
                                "a": 255.0,
                                "g": 255.0
                            },
                            "SrcId": "Out",
                            "SrcPos": "[-1.97 6.41 8.87]",
                            "StartPos": "[-12.94 8.63 -0.43]",
                            "Src": 788.0
                        }
                    }
                }
            }
        },
        "974": {
            "Mins": "[-27.5722 -27.5722 -3.9872]",
            "Pos": "[110.9761 136.8706 -126.2588]",
            "Class": "sc_turret",
            "Angle": "{-0.0001 -89.9855 -88.9364}",
            "Maxs": "[27.5722 27.5722 3.9872]",
            "Model": "models/mechanics/gears2/bevel_24t1.mdl",
            "EntityMods": {
                "SC2DupeInfo": {
                    "ProjectileType": "Small Trinium Hybrid Charge",
                    "FireGroup": "Primary",
                    "ProjectileRecipeOwner": "NULL",
                    "LauncherType": "Small Railgun",
                    "WeaponCount": 1.0,
                    "TurretType": "Small/Single Projector"
                },
                "WireDupeInfo": {
                    "Wires": []
                }
            }
        },
        "973": {
            "Mins": "[-4.8416 -5.0629 -5.1038]",
            "Pos": "[-40.1367 185.4155 12.1919]",
            "Class": "ship_core",
            "Angle": "{0 89.9937 0}",
            "Maxs": "[6.1988 5.0629 5.1038]",
            "Model": "models/slyfo/cup_noodle.mdl",
            "EntityMods": {
                "SC2DupeInfo": {
                    "tooloptions": {
                        "ArmorType": "Energized",
                        "ShipName": "NPC Delta",
                        "ShieldColor": {
                            "r": 255.0,
                            "b": 0.0,
                            "a": 156.0,
                            "g": 0.0
                        },
                        "HullType": "Combat",
                        "ShieldType": "Hybrid"
                    },
                    "range": 1225.6138916015626,
                    "storage": {
                        "Energy": {
                            "StorageMode": 1.0,
                            "Resources": []
                        },
                        "Liquid": {
                            "StorageMode": 3.0,
                            "Resources": []
                        },
                        "Gas": {
                            "StorageMode": 3.0,
                            "Resources": []
                        },
                        "Ammo": {
                            "StorageMode": 2.0,
                            "Resources": []
                        },
                        "Cargo": {
                            "StorageMode": 2.0,
                            "Resources": []
                        }
                    }
                },
                "WireDupeInfo": {
                    "Wires": []
                }
            }
        },
        "979": {
            "Mins": "[-21.8966 -21.8966 -6.1977]",
            "Pos": "[31.272 -177.3276 1.7441]",
            "Class": "sc_turret",
            "Angle": "{0 -44.9997 0}",
            "Maxs": "[21.8966 21.8966 32.4936]",
            "Model": "models/slyfo/swordrecondrone.mdl",
            "EntityMods": {
                "SC2DupeInfo": {
                    "ProjectileType": "Small EM Pulse Laser Crystal",
                    "FireGroup": "Primary",
                    "ProjectileRecipeOwner": "NULL",
                    "LauncherType": "Small Pulse Beam",
                    "WeaponCount": 1.0,
                    "TurretType": "Small/Double Battery"
                },
                "WireDupeInfo": {
                    "Wires": {
                        "Target": {
                            "Path": [],
                            "Material": "cable/cable2",
                            "Width": 0.0,
                            "Color": {
                                "r": 0.0,
                                "b": 233.0,
                                "a": 255.0,
                                "g": 255.0
                            },
                            "SrcId": "entity",
                            "SrcPos": "[-24.77 86.94 6.68]",
                            "StartPos": "[5.38 0.22 -0.16]",
                            "Src": 191.0
                        },
                        "Active": {
                            "Path": [],
                            "Material": "cable/cable2",
                            "Width": 0.0,
                            "Color": {
                                "r": 0.0,
                                "b": 233.0,
                                "a": 255.0,
                                "g": 255.0
                            },
                            "SrcId": "Out",
                            "SrcPos": "[-4.17 5.84 9.58]",
                            "StartPos": "[2.31 -17.4 -0.03]",
                            "Src": 310.0
                        },
                        "Fire": {
                            "Path": [],
                            "Material": "cable/cable2",
                            "Width": 0.0,
                            "Color": {
                                "r": 0.0,
                                "b": 233.0,
                                "a": 255.0,
                                "g": 255.0
                            },
                            "SrcId": "Out",
                            "SrcPos": "[-1.97 6.41 8.87]",
                            "StartPos": "[-10.02 -6.75 -0.37]",
                            "Src": 788.0
                        }
                    }
                }
            }
        },
        "897": {
            "Mins": "[-95.15 -95.15 -47.7]",
            "Pos": "[-47.3467 368.5278 -125.0791]",
            "PhysicsObjects": {
                "0": {
                    "Pos": "[-8018.5767 -6107.2417 -7658.4302]",
                    "Frozen": true,
                    "Angle": "{-0 179.9999 0}"
                }
            },
            "Class": "prop_dynamic_override",
            "Angle": "{-0 179.9999 0}",
            "Maxs": "[95.15 95.15 47.7]",
            "Model": "models/hunter/blocks/cube4x4x2.mdl",
            "EntityMods": {
                "nocollide": {
                    "NoCollide": true
                }
            }
        },
        "960": {
            "Mins": "[-23.2431 -22.1833 0]",
            "Name": "Gyropod",
            "Pos": "[-45.0088 -0.9194 -23.1226]",
            "Class": "sc_gyropod",
            "Angle": "{-0 -89.9999 0}",
            "Maxs": "[22.217 22.3167 45.1895]",
            "Model": "models/spacebuild/nova/drone2.mdl",
            "EntityMods": {
                "nocollide": {
                    "NoCollide": true
                },
                "SC2DupeInfo": {
                    "Deadzone": 5.0,
                    "AccelerationMult": "[1 1 1]",
                    "TurnMult": "[1 1 1]",
                    "ShouldAutoParent": true,
                    "UserMaxSpeed": -1.0,
                    "UserMaxTurnSpeed": -1.0
                },
                "WireDupeInfo": {
                    "Wires": []
                }
            }
        }
    }
}