{
    "Mins": "[-285.5657 -782.2758 -238.1113]",
    "Maxs": "[299.9865 633.7256 96.5813]",
    "ShipInfo": {
        "MaxArmor": 700204.0,
        "SigRad": 35.96629771734968,
        "PowerLevel": 5,
        "Class": "Frigate",
        "MaxCapacitor": 602793.0,
        "MaxShield": 884468.0,
        "NPCShipTags": {
            "Combat": true
        },
        "FactionWhitelist": {
            "Bereavement Advocates": true
        },
        "SubClass": "Frigate"
    },
    "Entities": {
        "88": {
            "Mins": "[-44.25 -28.7962 -33.6329]",
            "Pos": "[270.4403 -271.1504 -83.447]",
            "Class": "sc_module_weapon",
            "Angle": "{0 90 -180}",
            "Maxs": "[44.25 29.5462 33.6329]",
            "Model": "models/spacebuild/medbridge2_missile_launcher.mdl",
            "EntityMods": {
                "colour": {
                    "Color": {
                        "r": 72.0,
                        "b": 72.0,
                        "a": 255.0,
                        "g": 72.0
                    }
                },
                "SC2DupeInfo": {
                    "FireGroup": "Primary",
                    "Upgrades": [],
                    "Launcher": {
                        "ProjectileRecipe": "Medium Mjolnir",
                        "ProjectileRecipeOwner": "NULL",
                        "LauncherType": "Medium Missile Launcher"
                    }
                },
                "WireDupeInfo": {
                    "Wires": []
                }
            }
        },
        "155": {
            "Mins": "[-60.25 -76.6873 -0.25]",
            "Pos": "[-79.1125 281.5303 -74.4136]",
            "Class": "sc_turret",
            "Angle": "{90 -180 0}",
            "Maxs": "[60.25 87.5324 40.8038]",
            "Model": "models/mandrac/hybride/heavy_base.mdl",
            "EntityMods": {
                "SC2DupeInfo": {
                    "ProjectileType": "Small Solid Nubium Hybrid Charge",
                    "FireGroup": "Primary",
                    "ProjectileRecipeOwner": "NULL",
                    "LauncherType": "Small Railgun",
                    "WeaponCount": 1.0,
                    "TurretType": "Small/Single Heavy"
                },
                "WireDupeInfo": {
                    "Wires": []
                }
            }
        },
        "418": {
            "Mins": "[-68.2673 -313.6323 -123.4311]",
            "Pos": "[72.4603 -211.709 -114.6799]",
            "PhysicsObjects": {
                "0": {
                    "Angles": "{-0 179.998 0}",
                    "Frozen": true,
                    "Pos": "[282.2352 11275.2598 -2801.8398]",
                    "Angle": "{-0 179.998 0}"
                }
            },
            "Class": "prop_dynamic_override",
            "Angle": "{-0 179.998 0}",
            "Maxs": "[66.1646 313.6323 123.4311]",
            "Model": "models/props_combine/combine_train02a.mdl",
            "EntityMods": {
                "CollisionGroupMod": 0.0
            }
        },
        "359": {
            "Mins": "[-25.75 -14.125 -0.25]",
            "VehicleTable": {
                "Members": [],
                "Author": "SpaceBuild Enhancement Pack",
                "Model": "models/SmallBridge/Vehicles/SBVPchair.mdl",
                "Class": "prop_vehicle_prisoner_pod",
                "Category": "SpaceBuild Enhancement Pack",
                "Information": "A chair. From the Prometheus.",
                "Name": "Prometheus Chair",
                "KeyValues": {
                    "vehiclescript": "scripts/vehicles/prisoner_pod.txt",
                    "limitview": "0"
                }
            },
            "Pos": "[8.6693 -322.4932 0.4062]",
            "VehicleName": "sb_P_chair",
            "Class": "prop_vehicle_prisoner_pod",
            "EntityMods": {
                "colour": {
                    "Color": {
                        "r": 117.0,
                        "b": 117.0,
                        "a": 255.0,
                        "g": 117.0
                    }
                },
                "CollisionGroupMod": 0.0,
                "VehicleMemDupe": []
            },
            "Maxs": "[10.75 14.125 45.625]",
            "Model": "models/smallbridge/vehicles/sbvpchair.mdl",
            "Angle": "{-0 90 0}"
        },
        "98": {
            "Mins": "[-44.25 -28.7962 -33.6329]",
            "Pos": "[-256.0193 -271.5479 -81.6497]",
            "Class": "sc_module_weapon",
            "Angle": "{-0 89.9997 0}",
            "Maxs": "[44.25 29.5462 33.6329]",
            "Model": "models/spacebuild/medbridge2_missile_launcher.mdl",
            "EntityMods": {
                "colour": {
                    "Color": {
                        "r": 72.0,
                        "b": 72.0,
                        "a": 255.0,
                        "g": 72.0
                    }
                },
                "SC2DupeInfo": {
                    "FireGroup": "Primary",
                    "Upgrades": [],
                    "Launcher": {
                        "ProjectileRecipe": "Medium Mjolnir",
                        "ProjectileRecipeOwner": "NULL",
                        "LauncherType": "Medium Missile Launcher"
                    }
                },
                "WireDupeInfo": {
                    "Wires": []
                }
            }
        },
        "878": {
            "Mins": "[-60.25 -76.6873 -0.25]",
            "Pos": "[-87.2592 -62.8291 -77.2273]",
            "Class": "sc_turret",
            "Angle": "{90 180 0}",
            "Maxs": "[60.25 87.5324 40.8038]",
            "Model": "models/mandrac/hybride/heavy_base.mdl",
            "EntityMods": {
                "SC2DupeInfo": {
                    "ProjectileType": "Small Solid Nubium Hybrid Charge",
                    "FireGroup": "Primary",
                    "ProjectileRecipeOwner": "NULL",
                    "LauncherType": "Small Railgun",
                    "WeaponCount": 1.0,
                    "TurretType": "Small/Single Heavy"
                },
                "WireDupeInfo": {
                    "Wires": []
                }
            }
        },
        "365": {
            "Mins": "[-68.2673 -313.6323 -123.4311]",
            "Pos": "[-61.9479 320.0908 -114.6799]",
            "PhysicsObjects": {
                "0": {
                    "Angles": "{-0 179.998 0}",
                    "Frozen": true,
                    "Pos": "[147.827 11807.0596 -2801.8398]",
                    "Angle": "{-0 179.998 0}"
                }
            },
            "Class": "prop_dynamic_override",
            "Angle": "{-0 179.998 0}",
            "Maxs": "[66.1646 313.6323 123.4311]",
            "Model": "models/props_combine/combine_train02a.mdl",
            "EntityMods": {
                "CollisionGroupMod": 0.0,
                "material": {
                    "MaterialOverride": ""
                }
            }
        },
        "404": {
            "Mins": "[-68.2673 -313.6323 -123.4311]",
            "Pos": "[72.476 142.8203 -114.6799]",
            "PhysicsObjects": {
                "0": {
                    "Angles": "{-0 179.998 0}",
                    "Frozen": true,
                    "Pos": "[282.2509 11629.7891 -2801.8398]",
                    "Angle": "{-0 179.998 0}"
                }
            },
            "Class": "prop_dynamic_override",
            "Angle": "{-0 179.998 0}",
            "Maxs": "[66.1646 313.6323 123.4311]",
            "Model": "models/props_combine/combine_train02a.mdl",
            "EntityMods": {
                "CollisionGroupMod": 0.0,
                "material": {
                    "MaterialOverride": ""
                }
            }
        },
        "382": {
            "Mins": "[-467.3793 -237.6444 0]",
            "Pos": "[7.766 -314.8965 -196.7849]",
            "PhysicsObjects": {
                "0": {
                    "Angles": "{-0 90 0.0001}",
                    "Frozen": true,
                    "Pos": "[217.5409 11172.0723 -2883.9448]",
                    "Angle": "{-0 90 0.0001}"
                }
            },
            "Class": "prop_dynamic_override",
            "Angle": "{-0 90 0.0001}",
            "Maxs": "[467.6223 237.6444 210.1035]",
            "Model": "models/slyfo/transportlarge.mdl",
            "EntityMods": {
                "colour": {
                    "Color": {
                        "r": 104.0,
                        "b": 104.0,
                        "a": 255.0,
                        "g": 104.0
                    }
                },
                "CollisionGroupMod": 0.0
            }
        },
        "393": {
            "Mins": "[-68.2673 -313.6323 -123.4311]",
            "Pos": "[-61.9713 -211.7031 -114.6799]",
            "PhysicsObjects": {
                "0": {
                    "Angles": "{-0 179.998 0}",
                    "Frozen": true,
                    "Pos": "[147.8036 11275.2656 -2801.8398]",
                    "Angle": "{-0 179.998 0}"
                }
            },
            "Class": "prop_dynamic_override",
            "Angle": "{-0 179.998 0}",
            "Maxs": "[66.1646 313.6323 123.4311]",
            "Model": "models/props_combine/combine_train02a.mdl",
            "EntityMods": {
                "CollisionGroupMod": 0.0
            }
        },
        "394": {
            "Mins": "[-467.3793 -237.6444 0]",
            "Pos": "[7.766 -144.8936 -196.7849]",
            "PhysicsObjects": {
                "0": {
                    "Angles": "{-0 90 0.0001}",
                    "Frozen": true,
                    "Pos": "[217.5409 11342.0752 -2883.9448]",
                    "Angle": "{-0 90 0}"
                }
            },
            "Class": "prop_dynamic_override",
            "Angle": "{-0 90 0.0001}",
            "Maxs": "[467.6223 237.6444 210.1035]",
            "Model": "models/slyfo/transportlarge.mdl",
            "EntityMods": {
                "colour": {
                    "Color": {
                        "r": 104.0,
                        "b": 104.0,
                        "a": 255.0,
                        "g": 104.0
                    }
                },
                "CollisionGroupMod": 0.0
            }
        },
        "414": {
            "Mins": "[-143.9554 -97.9838 -65.7233]",
            "Pos": "[8.4096 -332.0908 30.6392]",
            "PhysicsObjects": {
                "0": {
                    "Angles": "{0 90 -0}",
                    "Frozen": true,
                    "Pos": "[218.1845 11154.8779 -2656.5208]",
                    "Angle": "{0 90 0}"
                }
            },
            "Class": "prop_dynamic_override",
            "Angle": "{0 90 0}",
            "Maxs": "[144.0019 97.9837 65.9421]",
            "Model": "models/slyfo/shuttle.mdl",
            "EntityMods": {
                "colour": {
                    "Color": {
                        "r": 117.0,
                        "b": 117.0,
                        "a": 255.0,
                        "g": 117.0
                    }
                },
                "CollisionGroupMod": 0.0
            }
        },
        "362": {
            "Mins": "[-127.2538 -107.8862 -61.7118]",
            "Pos": "[11.7211 -571.2656 33.1543]",
            "PhysicsObjects": {
                "0": {
                    "Angles": "{-0 -90 0}",
                    "Frozen": true,
                    "Pos": "[221.496 10915.7031 -2654.0056]",
                    "Angle": "{-0 -90 0}"
                }
            },
            "Class": "prop_dynamic_override",
            "Angle": "{-0 -90 0}",
            "Maxs": "[127.2538 107.8862 61.5604]",
            "Model": "models/slyfo/rextop.mdl",
            "EntityMods": {
                "colour": {
                    "Color": {
                        "r": 117.0,
                        "b": 117.0,
                        "a": 255.0,
                        "g": 117.0
                    }
                },
                "CollisionGroupMod": 0.0
            }
        },
        "947": {
            "Mins": "[-60.25 -76.6873 -0.25]",
            "Pos": "[91.8842 118.5537 -82.3762]",
            "Class": "sc_turret",
            "Angle": "{-90 180 0}",
            "Maxs": "[60.25 87.5324 40.8038]",
            "Model": "models/mandrac/hybride/heavy_base.mdl",
            "EntityMods": {
                "SC2DupeInfo": {
                    "ProjectileType": "Small Solid Nubium Hybrid Charge",
                    "FireGroup": "Primary",
                    "ProjectileRecipeOwner": "NULL",
                    "LauncherType": "Small Railgun",
                    "WeaponCount": 1.0,
                    "TurretType": "Small/Single Heavy"
                },
                "WireDupeInfo": {
                    "Wires": []
                }
            }
        },
        "433": {
            "Mins": "[-68.2673 -313.6323 -123.4311]",
            "Pos": "[72.4682 -34.4453 -114.6799]",
            "PhysicsObjects": {
                "0": {
                    "Angles": "{-0 179.998 0}",
                    "Frozen": true,
                    "Pos": "[282.2431 11452.5244 -2801.8398]",
                    "Angle": "{-0 179.998 0}"
                }
            },
            "Class": "prop_dynamic_override",
            "Angle": "{-0 179.998 0}",
            "Maxs": "[66.1646 313.6323 123.4311]",
            "Model": "models/props_combine/combine_train02a.mdl",
            "EntityMods": {
                "colour": {
                    "Color": {
                        "r": 104.0,
                        "b": 104.0,
                        "a": 255.0,
                        "g": 104.0
                    }
                },
                "CollisionGroupMod": 0.0
            }
        },
        "360": {
            "Mins": "[-467.3793 -237.6444 0]",
            "Pos": "[7.766 -229.8955 -196.7849]",
            "PhysicsObjects": {
                "0": {
                    "Angles": "{-0 90 0.0001}",
                    "Frozen": true,
                    "Pos": "[217.5409 11257.0732 -2883.9448]",
                    "Angle": "{-0 90 0.0001}"
                }
            },
            "Class": "prop_dynamic_override",
            "Angle": "{-0 90 0.0001}",
            "Maxs": "[467.6223 237.6444 210.1035]",
            "Model": "models/slyfo/transportlarge.mdl",
            "EntityMods": {
                "colour": {
                    "Color": {
                        "r": 104.0,
                        "b": 104.0,
                        "a": 255.0,
                        "g": 104.0
                    }
                },
                "CollisionGroupMod": 0.0
            }
        },
        "846": {
            "Mins": "[-60.25 -76.6873 -0.25]",
            "Pos": "[-88.8422 110.0342 -77.1099]",
            "Class": "sc_turret",
            "Angle": "{90 180 0}",
            "Maxs": "[60.25 87.5324 40.8038]",
            "Model": "models/mandrac/hybride/heavy_base.mdl",
            "EntityMods": {
                "SC2DupeInfo": {
                    "ProjectileType": "Small Solid Nubium Hybrid Charge",
                    "FireGroup": "Primary",
                    "ProjectileRecipeOwner": "NULL",
                    "LauncherType": "Small Railgun",
                    "WeaponCount": 1.0,
                    "TurretType": "Small/Single Heavy"
                },
                "WireDupeInfo": {
                    "Wires": []
                }
            }
        },
        "850": {
            "Mins": "[-60.25 -76.6873 -0.25]",
            "Pos": "[-88.475 472.7529 -74.7249]",
            "Class": "sc_turret",
            "Angle": "{90 180 0}",
            "Maxs": "[60.25 87.5324 40.8038]",
            "Model": "models/mandrac/hybride/heavy_base.mdl",
            "EntityMods": {
                "SC2DupeInfo": {
                    "ProjectileType": "Small Solid Nubium Hybrid Charge",
                    "FireGroup": "Primary",
                    "ProjectileRecipeOwner": "NULL",
                    "LauncherType": "Small Railgun",
                    "WeaponCount": 1.0,
                    "TurretType": "Small/Single Heavy"
                },
                "WireDupeInfo": {
                    "Wires": []
                }
            }
        },
        "361": {
            "Mins": "[-68.2673 -313.6323 -123.4311]",
            "Pos": "[-61.9635 -34.4385 -114.6799]",
            "PhysicsObjects": {
                "0": {
                    "Angles": "{-0 179.998 0}",
                    "Frozen": true,
                    "Pos": "[147.8114 11452.5303 -2801.8398]",
                    "Angle": "{-0 179.998 0}"
                }
            },
            "Class": "prop_dynamic_override",
            "Angle": "{-0 179.998 0}",
            "Maxs": "[66.1646 313.6323 123.4311]",
            "Model": "models/props_combine/combine_train02a.mdl",
            "EntityMods": {
                "CollisionGroupMod": 0.0
            }
        },
        "436": {
            "Mins": "[-18.8528 -23.3703 -21.7562]",
            "Pos": "[12.0668 -640.332 21.6152]",
            "Class": "ship_core",
            "Angle": "{-1.0208 90.1239 -0.003}",
            "Maxs": "[18.7514 23.3703 21.9014]",
            "Model": "models/props_interiors/furniture_couch02a.mdl",
            "EntityMods": {
                "CollisionGroupMod": 0.0,
                "SC2DupeInfo": {
                    "tooloptions": [],
                    "range": 1415.9959716796876,
                    "storage": {
                        "Energy": {
                            "StorageMode": 1.0,
                            "Resources": []
                        },
                        "Liquid": {
                            "StorageMode": 3.0,
                            "Resources": []
                        },
                        "Gas": {
                            "StorageMode": 3.0,
                            "Resources": []
                        },
                        "Ammo": {
                            "StorageMode": 2.0,
                            "Resources": []
                        },
                        "Cargo": {
                            "StorageMode": 2.0,
                            "Resources": []
                        }
                    }
                },
                "CreateWirelinkOutput": [
                    true
                ],
                "RDDupeInfo": {
                    "cons": [],
                    "entities": []
                },
                "WireDupeInfo": {
                    "Wires": []
                }
            }
        },
        "847": {
            "Mins": "[-60.25 -76.6873 -0.25]",
            "Pos": "[94.7633 303.9033 -82.5215]",
            "Class": "sc_turret",
            "Angle": "{-90 -180 0}",
            "Maxs": "[60.25 87.5324 40.8038]",
            "Model": "models/mandrac/hybride/heavy_base.mdl",
            "EntityMods": {
                "SC2DupeInfo": {
                    "ProjectileType": "Small Solid Nubium Hybrid Charge",
                    "FireGroup": "Primary",
                    "ProjectileRecipeOwner": "NULL",
                    "LauncherType": "Small Railgun",
                    "WeaponCount": 1.0,
                    "TurretType": "Small/Single Heavy"
                },
                "WireDupeInfo": {
                    "Wires": []
                }
            }
        },
        "435": {
            "Mins": "[-68.2673 -313.6323 -123.4311]",
            "Pos": "[-61.9557 142.8262 -114.6799]",
            "PhysicsObjects": {
                "0": {
                    "Angles": "{-0 179.998 0}",
                    "Frozen": true,
                    "Pos": "[147.8192 11629.7949 -2801.8398]",
                    "Angle": "{-0 179.998 0}"
                }
            },
            "Class": "prop_dynamic_override",
            "Angle": "{-0 179.998 0}",
            "Maxs": "[66.1646 313.6323 123.4311]",
            "Model": "models/props_combine/combine_train02a.mdl",
            "EntityMods": {
                "CollisionGroupMod": 0.0
            }
        },
        "351": {
            "Mins": "[-68.2673 -313.6323 -123.4311]",
            "Pos": "[72.4838 320.083 -114.6799]",
            "PhysicsObjects": {
                "0": {
                    "Angles": "{-0 179.998 0}",
                    "Frozen": true,
                    "Pos": "[282.2587 11807.0518 -2801.8398]",
                    "Angle": "{-0 179.998 0}"
                }
            },
            "Class": "prop_dynamic_override",
            "Angle": "{-0 179.998 0}",
            "Maxs": "[66.1646 313.6323 123.4311]",
            "Model": "models/props_combine/combine_train02a.mdl",
            "EntityMods": {
                "material": {
                    "MaterialOverride": ""
                },
                "CollisionGroupMod": 0.0
            }
        },
        "92": {
            "Mins": "[-39.8352 -10.25 -10.25]",
            "Name": "Gyropod",
            "Pos": "[5.989 -262.542 -85.3599]",
            "Class": "sc_gyropod",
            "Angle": "{0 90 0}",
            "Maxs": "[39.8352 10.25 10.25]",
            "Model": "models/maxofs2d/cube_tool.mdl",
            "EntityMods": {
                "SC2DupeInfo": {
                    "Deadzone": 5.0,
                    "AccelerationMult": "[1 1 1]",
                    "TurnMult": "[1 1 1]",
                    "ShouldAutoParent": true,
                    "UserMaxSpeed": -1.0,
                    "UserMaxTurnSpeed": -1.0
                },
                "WireDupeInfo": {
                    "Wires": []
                }
            }
        },
        "951": {
            "Mins": "[-60.25 -76.6873 -0.25]",
            "Pos": "[95.5928 485.5898 -80.5718]",
            "Class": "sc_turret",
            "Angle": "{-90 -180 0}",
            "Maxs": "[60.25 87.5324 40.8038]",
            "Model": "models/mandrac/hybride/heavy_base.mdl",
            "EntityMods": {
                "SC2DupeInfo": {
                    "ProjectileType": "Small Solid Nubium Hybrid Charge",
                    "FireGroup": "Primary",
                    "ProjectileRecipeOwner": "NULL",
                    "LauncherType": "Small Railgun",
                    "WeaponCount": 1.0,
                    "TurretType": "Small/Single Heavy"
                },
                "WireDupeInfo": {
                    "Wires": []
                }
            }
        },
        "858": {
            "Mins": "[-60.25 -76.6873 -0.25]",
            "Pos": "[98.3824 -67.2061 -84.502]",
            "Class": "sc_turret",
            "Angle": "{-90 -180 0}",
            "Maxs": "[60.25 87.5324 40.8038]",
            "Model": "models/mandrac/hybride/heavy_base.mdl",
            "EntityMods": {
                "SC2DupeInfo": {
                    "ProjectileType": "Small Solid Nubium Hybrid Charge",
                    "FireGroup": "Primary",
                    "ProjectileRecipeOwner": "NULL",
                    "LauncherType": "Small Railgun",
                    "WeaponCount": 1.0,
                    "TurretType": "Small/Single Heavy"
                },
                "WireDupeInfo": {
                    "Wires": []
                }
            }
        }
    }
}