{
    "Mins": "[-196.1856 -344.2809 -248.1678]",
    "Maxs": "[194.7729 237.7607 1]",
    "ShipInfo": {
        "MaxArmor": 114362.0,
        "SigRad": 14.783866616642044,
        "PowerLevel": 3,
        "Class": "Fighter",
        "MaxCapacitor": 140286.0,
        "MaxShield": 144458.0,
        "NPCShipTags": {
            "Combat": true
        },
        "FactionWhitelist": {
            "Bereavement Advocates": true
        },
        "SubClass": "Heavy Fighter"
    },
    "Entities": {
        "88": {
            "Mins": "[-256.25 -56.25 -64.25]",
            "Pos": "[109.5665 -68.4756 -102.4434]",
            "PhysicsObjects": {
                "0": {
                    "Angles": "{0 -90 -45}",
                    "Frozen": true,
                    "Pos": "[-610.4955 11321.1143 -2781.7798]",
                    "Angle": "{0 -90 -45}"
                }
            },
            "Class": "prop_dynamic_override",
            "Angle": "{-0 -90 -45}",
            "Maxs": "[64.25 56.25 64.25]",
            "Model": "models/spacebuild/emount2_milcock4.mdl",
            "EntityMods": {
                "colour": {
                    "Color": {
                        "r": 137.0,
                        "b": 149.0,
                        "a": 255.0,
                        "g": 137.0
                    }
                },
                "CollisionGroupMod": 0.0
            }
        },
        "219": {
            "Mins": "[-122.3389 -69.9013 -15.5587]",
            "Pos": "[0.4122 -65.2158 -127.6191]",
            "PhysicsObjects": {
                "0": {
                    "Angles": "{-0 90 0}",
                    "Frozen": true,
                    "Pos": "[-719.6498 11324.374 -2806.9556]",
                    "Angle": "{-0 90 0}"
                }
            },
            "Class": "prop_dynamic_override",
            "Angle": "{-0 90 0}",
            "Maxs": "[124.5564 71.6378 16.4089]",
            "Model": "models/spacebuild/medbridge2_doublehull_elevatorpad.mdl",
            "EntityMods": {
                "colour": {
                    "Color": {
                        "r": 137.0,
                        "b": 149.0,
                        "a": 255.0,
                        "g": 137.0
                    }
                },
                "CollisionGroupMod": 0.0
            }
        },
        "218": {
            "Mins": "[-140.25 -46.3585 -46.3567]",
            "Pos": "[52.3018 -158.96 -125.4124]",
            "PhysicsObjects": {
                "0": {
                    "Angles": "{-0 -90 0.0001}",
                    "Frozen": true,
                    "Pos": "[-667.7603 11230.6299 -2804.7488]",
                    "Angle": "{-0 -90 0.0001}"
                }
            },
            "Class": "prop_dynamic_override",
            "Angle": "{-0 -90 0.0001}",
            "Maxs": "[185.3209 46.3584 46.3567]",
            "Model": "models/spacebuild/medbridge2_gatling_cannon.mdl",
            "EntityMods": {
                "colour": {
                    "Color": {
                        "r": 137.0,
                        "b": 149.0,
                        "a": 255.0,
                        "g": 137.0
                    }
                },
                "CollisionGroupMod": 0.0
            }
        },
        "422": {
            "Mins": "[-7.0559 -9.0241 -9.6166]",
            "Pos": "[-109.0269 -140.6475 -101.8994]",
            "Class": "sc_module_weapon",
            "Angle": "{0.5529 -90.0091 0.9868}",
            "Maxs": "[7.0559 9.0729 9.6565]",
            "Model": "models/props_c17/pulleywheels_small01.mdl",
            "EntityMods": {
                "SC2DupeInfo": {
                    "FireGroup": "Secondary",
                    "Upgrades": [],
                    "Launcher": {
                        "ProjectileRecipe": "Tiny Mjolnir",
                        "ProjectileRecipeOwner": "NULL",
                        "LauncherType": "Tiny Missile Launcher"
                    }
                },
                "WireDupeInfo": {
                    "Wires": []
                }
            }
        },
        "150": {
            "Mins": "[-35.25 -35.25 -0.25]",
            "Pos": "[-0.4628 -85.6895 -100.5242]",
            "PhysicsObjects": {
                "0": {
                    "Angles": "{90 90 0}",
                    "Frozen": true,
                    "Pos": "[-720.5248 11303.9004 -2779.8606]",
                    "Angle": "{90 90 0}"
                }
            },
            "Class": "prop_dynamic_override",
            "Angle": "{90 90 0}",
            "Maxs": "[35.25 35.25 64.25]",
            "Model": "models/ce_ls3additional/resource_cache/resource_cache_small.mdl",
            "EntityMods": {
                "CollisionGroupMod": 0.0,
                "WireDupeInfo": {
                    "Wires": []
                }
            }
        },
        "425": {
            "Mins": "[-7.0559 -9.0241 -9.6166]",
            "Pos": "[112.8982 -137.1738 -104.3459]",
            "Class": "sc_module_weapon",
            "Angle": "{0.5798 -90.0002 -13.3194}",
            "Maxs": "[7.0559 9.0729 9.6565]",
            "Model": "models/props_c17/pulleywheels_small01.mdl",
            "EntityMods": {
                "SC2DupeInfo": {
                    "FireGroup": "Secondary",
                    "Upgrades": [],
                    "Launcher": {
                        "ProjectileRecipe": "Tiny Mjolnir",
                        "ProjectileRecipeOwner": "NULL",
                        "LauncherType": "Tiny Missile Launcher"
                    }
                },
                "WireDupeInfo": {
                    "Wires": []
                }
            }
        },
        "100": {
            "Mins": "[-77.8828 -47.7993 -48.0764]",
            "VehicleTable": {
                "Members": [],
                "KeyValues": {
                    "vehiclescript": "scripts/vehicles/prisoner_pod.txt",
                    "limitview": "0"
                },
                "Model": "models/spacebuild/mil_cock_7.mdl",
                "Information": "Military Cockpit 7",
                "Category": "SpaceBuild Enhancement Project",
                "Class": "prop_vehicle_prisoner_pod",
                "Name": "Military Cockpit 7",
                "Author": "SpaceBuild Enhancement Project"
            },
            "Pos": "[0.6447 -115.2402 -105.3643]",
            "VehicleName": "sbep_milcock7",
            "Class": "prop_vehicle_prisoner_pod",
            "EntityMods": {
                "colour": {
                    "Color": {
                        "r": 137.0,
                        "b": 149.0,
                        "a": 255.0,
                        "g": 137.0
                    }
                },
                "CollisionGroupMod": 0.0,
                "VehicleMemDupe": []
            },
            "Maxs": "[173.2799 47.7993 43.1504]",
            "Model": "models/spacebuild/mil_cock_7.mdl",
            "Angle": "{-0.0109 -89.9997 0.0037}"
        },
        "117": {
            "Mins": "[-39.8352 -10.25 -10.25]",
            "Name": "Gyropod",
            "Pos": "[-0.456 49.0908 -127.1941]",
            "Class": "sc_gyropod",
            "Angle": "{0 -90 0}",
            "Maxs": "[39.8352 10.25 10.25]",
            "Model": "models/maxofs2d/cube_tool.mdl",
            "EntityMods": {
                "SC2DupeInfo": {
                    "Deadzone": 5.0,
                    "AccelerationMult": "[1 1 1]",
                    "TurnMult": "[1 1 1]",
                    "ShouldAutoParent": true,
                    "UserMaxSpeed": -1.0,
                    "UserMaxTurnSpeed": -1.0
                },
                "WireDupeInfo": {
                    "Wires": []
                }
            }
        },
        "140": {
            "Mins": "[-27.5722 -27.5722 -3.9872]",
            "Pos": "[0.6423 -162.9307 -60.5938]",
            "Class": "sc_turret",
            "Angle": "{0 -90 0}",
            "Maxs": "[27.5722 27.5722 3.9872]",
            "Model": "models/mechanics/gears2/bevel_24t1.mdl",
            "EntityMods": {
                "SC2DupeInfo": {
                    "ProjectileType": "Small Thermal Pulse Laser Crystal",
                    "FireGroup": "Secondary",
                    "ProjectileRecipeOwner": "NULL",
                    "LauncherType": "Small Pulse Beam",
                    "WeaponCount": 1.0,
                    "TurretType": "Small/Single Projector"
                },
                "WireDupeInfo": {
                    "Wires": []
                }
            }
        },
        "147": {
            "Skin": 2.0,
            "Mins": "[-93.25 -93.25 -0.25]",
            "Pos": "[0.4904 -66.3135 -111.9553]",
            "PhysicsObjects": {
                "0": {
                    "Angles": "{0 90 -180}",
                    "Frozen": true,
                    "Pos": "[-719.5717 11323.2754 -2791.2917]",
                    "Angle": "{0 90 -180}"
                }
            },
            "Class": "prop_dynamic_override",
            "Angle": "{0 90 -180}",
            "Maxs": "[93.25 93.25 78.37]",
            "Model": "models/smallbridge/life support/sbfusiongen.mdl",
            "EntityMods": {
                "colour": {
                    "Color": {
                        "r": 137.0,
                        "b": 149.0,
                        "a": 255.0,
                        "g": 137.0
                    }
                },
                "CollisionGroupMod": 0.0
            }
        },
        "141": {
            "Mins": "[-1.9244 -2.1775 -3.6883]",
            "Pos": "[1.0128 -84.96 -66.4922]",
            "Class": "ship_core",
            "Angle": "{-10.1643 93.2014 94.9092}",
            "Maxs": "[1.9174 2.1716 3.6727]",
            "Model": "models/props_junk/popcan01a.mdl",
            "EntityMods": {
                "SC2DupeInfo": {
                    "tooloptions": [],
                    "range": 582.0419921875,
                    "storage": {
                        "Energy": {
                            "StorageMode": 1.0,
                            "Resources": []
                        },
                        "Liquid": {
                            "StorageMode": 3.0,
                            "Resources": []
                        },
                        "Gas": {
                            "StorageMode": 3.0,
                            "Resources": []
                        },
                        "Ammo": {
                            "StorageMode": 2.0,
                            "Resources": []
                        },
                        "Cargo": {
                            "StorageMode": 2.0,
                            "Resources": []
                        }
                    }
                },
                "CollisionGroupMod": 20.0,
                "WireDupeInfo": {
                    "Wires": []
                },
                "RDDupeInfo": {
                    "cons": [],
                    "entities": []
                }
            }
        },
        "296": {
            "Mins": "[-44.25 -28.7962 -33.6329]",
            "Pos": "[0.4904 -66.3135 -218.6216]",
            "Class": "sc_module_weapon",
            "Angle": "{0 -90 -90}",
            "Maxs": "[44.25 29.5462 33.6329]",
            "Model": "models/spacebuild/medbridge2_missile_launcher.mdl",
            "EntityMods": {
                "SC2DupeInfo": {
                    "FireGroup": "Secondary",
                    "Upgrades": [],
                    "Launcher": {
                        "ProjectileRecipe": "Medium Heavy Kinetic Missile",
                        "ProjectileRecipeOwner": "NULL",
                        "LauncherType": "Medium Missile Launcher"
                    }
                },
                "WireDupeInfo": {
                    "Wires": []
                }
            }
        },
        "128": {
            "Mins": "[-39.8352 -10.25 -10.25]",
            "Pos": "[-0.456 49.0908 -147.1941]",
            "Class": "sc_module_targeter",
            "Angle": "{0 -90 0}",
            "Maxs": "[39.8352 10.25 10.25]",
            "Model": "models/maxofs2d/cube_tool.mdl",
            "EntityMods": {
                "SC2DupeInfo": {
                    "TargetFilters": [
                        {
                            "DisplayName": "Combat",
                            "CheckFaction": true,
                            "Classes": [
                                "ship_core"
                            ],
                            "IgnoreOwnedEntities": true
                        },
                        {
                            "DisplayName": "Salvaging",
                            "CheckFaction": false,
                            "Classes": [
                                "sc_wreck"
                            ]
                        },
                        {
                            "DisplayName": "Mining",
                            "CheckFaction": false,
                            "Classes": [
                                "mining_mineral",
                                "mining_mineral_parent",
                                "mining_rock",
                                "mining_asteroid"
                            ]
                        }
                    ]
                },
                "WireDupeInfo": {
                    "Wires": []
                }
            }
        },
        "120": {
            "Mins": "[-140.25 -46.3585 -46.3567]",
            "Pos": "[-49.3183 -158.0664 -124.1204]",
            "PhysicsObjects": {
                "0": {
                    "Angles": "{0 -90 0}",
                    "Frozen": true,
                    "Pos": "[-769.3804 11231.5234 -2803.4568]",
                    "Angle": "{0 -90 0}"
                }
            },
            "Class": "prop_dynamic_override",
            "Angle": "{0 -90 0}",
            "Maxs": "[185.3209 46.3584 46.3567]",
            "Model": "models/spacebuild/medbridge2_gatling_cannon.mdl",
            "EntityMods": {
                "colour": {
                    "Color": {
                        "r": 137.0,
                        "b": 149.0,
                        "a": 255.0,
                        "g": 137.0
                    }
                },
                "CollisionGroupMod": 0.0
            }
        },
        "233": {
            "Mins": "[-27.5722 -27.5722 -3.9872]",
            "Pos": "[0.6479 -162.9473 -155.0845]",
            "Class": "sc_turret",
            "Angle": "{-0 -90 -180}",
            "Maxs": "[27.5722 27.5722 3.9872]",
            "Model": "models/mechanics/gears2/bevel_24t1.mdl",
            "EntityMods": {
                "SC2DupeInfo": {
                    "ProjectileType": "Small Thermal Pulse Laser Crystal",
                    "FireGroup": "Secondary",
                    "ProjectileRecipeOwner": "NULL",
                    "LauncherType": "Small Pulse Beam",
                    "WeaponCount": 1.0,
                    "TurretType": "Small/Single Projector"
                },
                "WireDupeInfo": {
                    "Wires": []
                }
            }
        },
        "138": {
            "Mins": "[-256.25 -56.25 -64.25]",
            "Pos": "[-110.9792 -71.9854 -103.6711]",
            "PhysicsObjects": {
                "0": {
                    "Angles": "{-0 -90 45}",
                    "Frozen": true,
                    "Pos": "[-831.0413 11317.6045 -2783.0076]",
                    "Angle": "{-0 -90 45}"
                }
            },
            "Class": "prop_dynamic_override",
            "Angle": "{-0 -90 45}",
            "Maxs": "[64.25 56.25 64.25]",
            "Model": "models/spacebuild/emount2_milcock4.mdl",
            "EntityMods": {
                "colour": {
                    "Color": {
                        "r": 137.0,
                        "b": 149.0,
                        "a": 255.0,
                        "g": 137.0
                    }
                },
                "CollisionGroupMod": 0.0
            }
        },
        "217": {
            "Mins": "[-256.25 -56.25 -64.25]",
            "Pos": "[-0.4599 -18.4893 -64.0312]",
            "PhysicsObjects": {
                "0": {
                    "Angles": "{0 -90 0}",
                    "Frozen": true,
                    "Pos": "[-720.522 11371.1006 -2743.3677]",
                    "Angle": "{0 -90 0}"
                }
            },
            "Class": "prop_dynamic_override",
            "Angle": "{0 -90 0}",
            "Maxs": "[64.25 56.25 64.25]",
            "Model": "models/spacebuild/emount2_milcock4.mdl",
            "EntityMods": {
                "colour": {
                    "Color": {
                        "r": 137.0,
                        "b": 149.0,
                        "a": 255.0,
                        "g": 137.0
                    }
                },
                "CollisionGroupMod": 0.0
            }
        }
    }
}