{
	"Mins": "[-195.0591 -95.8627 -243.0947]",
	"Maxs": "[182.8736 183.0121 104.397]",
	"ShipInfo": {
		"MaxArmor": 98468.0,
		"SigRad": 9.568312869867102,
		"Class": "Fighter",
		"MaxCapacitor": 127738.0,
		"MaxShield": 124380.0,
		"NPCShipTags": {
			"Combat": true
		},
		"SubClass": "Heavy Fighter",
		"PowerLevel": 2
	},
	"Entities": {
		"140": {
			"Mins": "[-7.0559 -9.0241 -9.6166]",
			"Pos": "[-187.3984 9.4707 -61.2373]",
			"Class": "sc_module_weapon",
			"Angle": "{-3.6592 179.9989 -0.5197}",
			"Maxs": "[7.0559 9.0729 9.6565]",
			"Model": "models/props_c17/pulleywheels_small01.mdl",
			"EntityMods": {
				"SC2DupeInfo": {
					"FireGroup": "Primary",
					"Upgrades": [],
					"Launcher": {
						"ProjectileRecipe": "Tiny Explosive Missile",
						"ProjectileRecipeOwner": "NULL",
						"LauncherType": "Tiny Missile Launcher"
					}
				},
				"WireDupeInfo": {
					"Wires": []
				}
			}
		},
		"105": {
			"Mins": "[-27.5722 -27.5722 -3.9872]",
			"Pos": "[-4.8525 106.6743 -146.5903]",
			"Class": "sc_turret",
			"Angle": "{-0.006 90.0227 -179.9955}",
			"Maxs": "[27.5722 27.5722 3.9872]",
			"Model": "models/mechanics/gears2/bevel_24t1.mdl",
			"EntityMods": {
				"SC2DupeInfo": {
					"ProjectileType": "Medium EM Pulse Laser Crystal",
					"FireGroup": "Primary",
					"ProjectileRecipeOwner": "NULL",
					"LauncherType": "Medium Pulse Beam",
					"WeaponCount": 1.0,
					"TurretType": "Small/Single Projector"
				},
				"WireDupeInfo": {
					"Wires": []
				}
			}
		},
		"124": {
			"Mins": "[-27.5722 -27.5722 -3.9872]",
			"Pos": "[-168.458 -52.0093 -220.6558]",
			"Class": "sc_turret",
			"Angle": "{-0.0006 90.0035 -134.9946}",
			"Maxs": "[27.5722 27.5722 3.9872]",
			"Model": "models/mechanics/gears2/bevel_24t1.mdl",
			"EntityMods": {
				"SC2DupeInfo": {
					"ProjectileType": "Small Solid Nubium Hybrid Charge",
					"FireGroup": "Primary",
					"ProjectileRecipeOwner": "NULL",
					"LauncherType": "Small Railgun",
					"WeaponCount": 1.0,
					"TurretType": "Small/Single Projector"
				},
				"WireDupeInfo": {
					"Wires": []
				}
			}
		},
		"25": {
			"Mins": "[-136.9523 -177.7969 -70.4607]",
			"Pos": "[-5.8945 69.9263 -72.1621]",
			"PhysicsObjects": {
				"0": {
					"Pos": "[-9495.2129 -5324.459 -7800.0122]",
					"Frozen": true,
					"Angle": "{0.0054 89.9998 -0.0004}"
				}
			},
			"Class": "prop_dynamic_override",
			"Angle": "{0.0054 89.9998 -0.0004}",
			"Maxs": "[113.0782 177.7969 74.8229]",
			"Model": "models/spacebuild/milcock6_emount1.mdl",
			"EntityMods": []
		},
		"100": {
			"Mins": "[-16.25 -16.25 -16.25]",
			"Pos": "[-6.1172 -41.4229 -123.3242]",
			"Class": "ship_core",
			"Angle": "{0 90.0115 0}",
			"Maxs": "[16.25 16.25 16.25]",
			"Model": "models/combine_helicopter/helicopter_bomb01.mdl",
			"EntityMods": {
				"SC2DupeInfo": {
					"tooloptions": {
						"ArmorType": "Standard",
						"ShipName": "NPC Fighter",
						"ShieldColor": {
							"r": 33.0,
							"b": 69.0,
							"a": 156.0,
							"g": 54.0
						},
						"HullType": "Combat",
						"ShieldType": "Hybrid"
					},
					"range": 512.0,
					"storage": {
						"Energy": {
							"StorageMode": 1.0,
							"Resources": []
						},
						"Liquid": {
							"StorageMode": 3.0,
							"Resources": []
						},
						"Gas": {
							"StorageMode": 3.0,
							"Resources": []
						},
						"Ammo": {
							"StorageMode": 2.0,
							"Resources": []
						},
						"Cargo": {
							"StorageMode": 2.0,
							"Resources": []
						}
					}
				},
				"WireDupeInfo": {
					"Wires": []
				}
			}
		},
		"94": {
			"Skin": 3.0,
			"Mins": "[-78.37 -111.85 0]",
			"Pos": "[-76.7979 -33.5239 -148.4707]",
			"PhysicsObjects": {
				"0": {
					"Pos": "[-9566.1162 -5427.9097 -7876.3203]",
					"Frozen": true,
					"Angle": "{-0 -90 44.9934}"
				}
			},
			"Class": "prop_dynamic_override",
			"Angle": "{-0 -90 44.9934}",
			"Maxs": "[53.6733 111.85 22.57]",
			"Model": "models/smallbridge/wings/sbwings1l.mdl",
			"EntityMods": []
		},
		"85": {
			"Mins": "[-27.5722 -27.5722 -3.9872]",
			"Pos": "[156.4014 -51.644 -220.7749]",
			"Class": "sc_turret",
			"Angle": "{0.0239 89.9969 135.0261}",
			"Maxs": "[27.5722 27.5722 3.9872]",
			"Model": "models/mechanics/gears2/bevel_24t1.mdl",
			"EntityMods": {
				"SC2DupeInfo": {
					"ProjectileType": "Small Solid Nubium Hybrid Charge",
					"FireGroup": "Primary",
					"ProjectileRecipeOwner": "NULL",
					"LauncherType": "Small Railgun",
					"WeaponCount": 1.0,
					"TurretType": "Small/Single Projector"
				},
				"WireDupeInfo": {
					"Wires": []
				}
			}
		},
		"97": {
			"Skin": 3.0,
			"Mins": "[-78.37 -111.85 0]",
			"Pos": "[81.041 -33.5117 9.3477]",
			"PhysicsObjects": {
				"0": {
					"Pos": "[-9408.2773 -5427.897 -7718.502]",
					"Frozen": true,
					"Angle": "{0 -89.9917 45}"
				}
			},
			"Class": "prop_dynamic_override",
			"Angle": "{0 -89.9917 45}",
			"Maxs": "[53.6733 111.85 22.57]",
			"Model": "models/smallbridge/wings/sbwings1r.mdl",
			"EntityMods": []
		},
		"158": {
			"Mins": "[-39.8352 -10.25 -10.25]",
			"Name": "Gyropod",
			"Pos": "[-5.8965 -56.0259 -69.9683]",
			"Class": "sc_gyropod",
			"Angle": "{-0 90.0093 0}",
			"Maxs": "[39.8352 10.25 10.25]",
			"Model": "models/maxofs2d/cube_tool.mdl",
			"EntityMods": {
				"SC2DupeInfo": {
					"Deadzone": 5.0,
					"AccelerationMult": "[1 1 1]",
					"TurnMult": "[1 1 1]",
					"ShouldAutoParent": true,
					"UserMaxSpeed": -1.0,
					"UserMaxTurnSpeed": -1.0
				},
				"WireDupeInfo": {
					"Wires": []
				}
			}
		},
		"16": {
			"Skin": 3.0,
			"Mins": "[-78.37 -111.85 0]",
			"Pos": "[-92.7598 -33.5239 9.3301]",
			"PhysicsObjects": {
				"0": {
					"Pos": "[-9582.0781 -5427.9097 -7718.52]",
					"Frozen": true,
					"Angle": "{0 -90.0001 -44.9886}"
				}
			},
			"Class": "prop_dynamic_override",
			"Angle": "{0 -90.0001 -44.9886}",
			"Maxs": "[53.6733 111.85 22.57]",
			"Model": "models/smallbridge/wings/sbwings1l.mdl",
			"EntityMods": []
		},
		"104": {
			"Mins": "[-7.0559 -9.0241 -9.6166]",
			"Pos": "[175.585 10.395 -61.4863]",
			"Class": "sc_module_weapon",
			"Angle": "{1.3249 -0.0497 0.9874}",
			"Maxs": "[7.0559 9.0729 9.6565]",
			"Model": "models/props_c17/pulleywheels_small01.mdl",
			"EntityMods": {
				"SC2DupeInfo": {
					"FireGroup": "Primary",
					"Upgrades": [],
					"Launcher": {
						"ProjectileRecipe": "Tiny Explosive Missile",
						"ProjectileRecipeOwner": "NULL",
						"LauncherType": "Tiny Missile Launcher"
					}
				},
				"WireDupeInfo": {
					"Wires": []
				}
			}
		},
		"139": {
			"Skin": 3.0,
			"Mins": "[-78.37 -111.85 0]",
			"Pos": "[65.0977 -33.5239 -148.4639]",
			"PhysicsObjects": {
				"0": {
					"Pos": "[-9424.2207 -5427.9097 -7876.314]",
					"Frozen": true,
					"Angle": "{0 -90 -44.988}"
				}
			},
			"Class": "prop_dynamic_override",
			"Angle": "{0 -90 -44.988}",
			"Maxs": "[53.6733 111.85 22.57]",
			"Model": "models/smallbridge/wings/sbwings1r.mdl",
			"EntityMods": []
		},
		"117": {
			"Mins": "[-91.352 -64.6966 -54.1257]",
			"Pos": "[-5.8945 69.9263 -72.1621]",
			"PhysicsObjects": {
				"0": {
					"Pos": "[-9495.2129 -5324.459 -7800.0122]",
					"Frozen": true,
					"Angle": "{-0 90.0266 0}"
				}
			},
			"Class": "prop_dynamic_override",
			"Maxs": "[101.4516 64.6986 75.2784]",
			"Model": "models/spacebuild/milcock6_redux.mdl",
			"Angle": "{-0 90.0266 0}"
		}
	}
}